<?xml version="1.0" encoding="utf-8"?>
<!-- Generator: Adobe Illustrator 19.2.1, SVG Export Plug-In . SVG Version: 6.00 Build 0)  -->
<svg version="1.1" id="Layer_1" xmlns="http://www.w3.org/2000/svg" xmlns:xlink="http://www.w3.org/1999/xlink" x="0px" y="0px"
	 viewBox="0 0 19.2 18" style="enable-background:new 0 0 19.2 18;" xml:space="preserve">
<style type="text/css">
	.st0{fill:#719551;}
</style>
<path class="st0" d="M12.1,6.9c-0.2,0-0.3-0.1-0.3-0.3C11.2,4.6,9.6,0,9.6,0S8.2,4.5,7.5,6.7c0,0.1-0.1,0.2-0.3,0.2
	c-2.3,0-7.2,0-7.2,0S3.9,9.7,5.8,11c0.2,0.1,0.2,0.2,0.1,0.4C5.3,13.2,3.7,18,3.7,18s3.7-2.6,5.5-3.9c0.3-0.2,0.4-0.3,0.7,0
	c1.4,1,5.5,3.9,5.5,3.9s-1.5-4.5-2.2-6.7c0-0.1,0-0.2,0.1-0.3c1.9-1.4,5.8-4.2,5.8-4.2S14.5,6.9,12.1,6.9z"/>
</svg>
